T5_RGrafico
…
## Base de datos de who 
data("who")

## Se obtienen unicamente los datos de nias y nios del rango de edad pedido (0 y 14 aos) 
rango_de_edad <- who %>% select(country, year, new_sp_m014, new_sp_f014) 
print("Datos de nias y nios entre 0 y 14 aos.")

## [1] "Datos de nias y nios entre 0 y 14 aos."

print(rango_de_edad)

## # A tibble: 7,240 x 4
##    country      year new_sp_m014 new_sp_f014
##    <chr>       <dbl>       <dbl>       <dbl>
##  1 Afghanistan  1980          NA          NA
##  2 Afghanistan  1981          NA          NA
##  3 Afghanistan  1982          NA          NA
##  4 Afghanistan  1983          NA          NA
##  5 Afghanistan  1984          NA          NA
##  6 Afghanistan  1985          NA          NA
##  7 Afghanistan  1986          NA          NA
##  8 Afghanistan  1987          NA          NA
##  9 Afghanistan  1988          NA          NA
## 10 Afghanistan  1989          NA          NA
## # ... with 7,230 more rows
## Se extraen los datos del ao 1996 en adelante (1996 - 2012).
subset_96_12 <- who %>% filter (year >= 1996 & year <= 2012)

## Datos de nios y nias desde el ao 1996 y se eliminan los valores NA 
ninos_ninas_purgado <- who %>% 
  select(country, year, new_sp_m014, new_sp_f014) %>% 
  filter (year >= 1996 & year <= 2012) %>% subset(!is.na(new_sp_m014)) %>%
  subset(!is.na(new_sp_f014)) 
print("Datos del ao 1996 en adelante (1996 - 2012).")

## [1] "Datos del ao 1996 en adelante (1996 - 2012)."

print(ninos_ninas_purgado)

## # A tibble: 2,991 x 4
##    country      year new_sp_m014 new_sp_f014
##    <chr>       <dbl>       <dbl>       <dbl>
##  1 Afghanistan  1997           0           5
##  2 Afghanistan  1998          30          45
##  3 Afghanistan  1999           8          25
##  4 Afghanistan  2000          52          93
##  5 Afghanistan  2001         129         146
##  6 Afghanistan  2002          90         192
##  7 Afghanistan  2003         127         245
##  8 Afghanistan  2004         139         256
##  9 Afghanistan  2005         151         320
## 10 Afghanistan  2006         193         442
## # ... with 2,981 more rows
…
